<svg xmlns="http://www.w3.org/2000/svg" fill="none" viewBox="0 0 108 30">
  <path fill="#333" fill-rule="evenodd" d="M3.15259 23.4699H1.89185C.847176 23.4699 0 22.6289 0 21.5918V8.40827c0-1.03708.847176-1.8781 1.89185-1.8781h1.05347c1.04467 0 1.89185.84102 1.89185 1.8781V21.7976c0 .9235-.7543 1.6723-1.68458 1.6723zM29.7241 30h-1.2608c-1.0447 0-1.8918-.841-1.8918-1.8781V1.87809C26.5715.841017 27.4186 0 28.4633 0h1.0535c1.0447 0 1.8918.841017 1.8918 1.87809V28.3277c0 .9235-.7543 1.6723-1.6845 1.6723zM12.0098 30H10.749c-1.04465 0-1.89183-.841-1.89183-1.8781V1.87809C8.85717.841017 9.70435 0 10.749 0h1.0535c1.0447 0 1.8918.841017 1.8918 1.87809V28.3277c0 .9235-.7543 1.6723-1.6845 1.6723zM38.5812 23.4699h-1.2608c-1.0446 0-1.8918-.841-1.8918-1.8781V8.40827c0-1.03708.8472-1.8781 1.8918-1.8781h1.0535c1.0447 0 1.8919.84102 1.8919 1.8781V21.7976c0 .9235-.7543 1.6723-1.6846 1.6723zM20.8669 24.0012h-1.2608c-1.0446 0-1.8918-.8411-1.8918-1.8781V9.31368c0-1.03756.8472-1.87809 1.8918-1.87809h1.0535c1.0447 0 1.8919.84053 1.8919 1.87809V22.3288c0 .9235-.7543 1.6724-1.6846 1.6724zM61.5856 16.4326l-.9968-2.1489h-.0132l-.984 2.1489h1.994zm-5.392 2.787l4.1063-8.7649c.0396-.0781.1315-.1432.2229-.1432h.1315c.0915 0 .1839.0651.223.1432l4.1063 8.7649c.0787.1694-.0264.3388-.2229.3388h-1.4563c-.2361 0-.3412-.0782-.4595-.3257l-.4722-1.0288h-3.5682l-.4722 1.0419c-.0655.1563-.2102.3126-.4722.3126H56.417c-.197 0-.3021-.1694-.2234-.3388zM75.2948 10.3115c1.3121 0 2.283.4037 3.1751 1.2113.1178.1038.1178.2601.0127.3644l-1.0231 1.0551c-.0919.0912-.2361.0912-.328 0-.4855-.43-1.1283-.6644-1.7711-.6644-1.4822 0-2.5714 1.2244-2.5714 2.6832 0 1.4452 1.1024 2.6434 2.5846 2.6434.6164 0 1.2856-.2213 1.7579-.6251.0919-.0781.2625-.0781.3412.0131l1.0231 1.0808c.0919.0912.0787.2606-.0132.3518-.8921.8595-2.0204 1.2633-3.1878 1.2633-2.6236 0-4.7359-2.0708-4.7359-4.6754 0-2.6046 2.1123-4.7015 4.7359-4.7015zM86.2096 10.5199c.0132-.1175.131-.2082.2361-.2082h.2098c.066 0 .1838.0519.2234.13l3.0435 5.6261h.0264l3.0436-5.6261c.0391-.0781.1569-.13.2229-.13h.2097c.1052 0 .223.0907.2362.2082l1.4826 8.7518c.0259.1694-.0919.2863-.2493.2863h-1.5482c-.1183 0-.2361-.1038-.2493-.2082l-.5905-4.024h-.0259l-2.2042 4.2196c-.0391.0781-.1574.1432-.2229.1432h-.2362c-.0787 0-.1838-.0651-.2229-.1432l-2.2169-4.2196h-.0264l-.5773 4.024c-.0132.1044-.1183.2082-.2494.2082h-1.5481c-.1574 0-.2753-.1169-.2489-.2863l1.4822-8.7518zM102.07 10.6892c0-.1301.105-.2475.25-.2475h5.431c.144 0 .249.1174.249.2475v1.4195c0 .13-.105.2475-.249.2475h-3.634v1.6151h2.991c.131 0 .249.1169.249.2475v1.4194c0 .1432-.118.2475-.249.2475h-2.991v1.7583h3.634c.144 0 .249.1169.249.247v1.42c0 .13-.105.2475-.249.2475h-5.431c-.145 0-.25-.1175-.25-.2475v-8.6218z" clip-rule="evenodd"/>
</svg>
